{
  "aulas": [
    {
      "id": "1",
      "materia": "1 - PLATAFORMA - COMO USAR",
      "aula": "Aula 01 - BOAS VINDAS - BANCO do NORDESTE",
      "link": "https://youtu.be/fu3nqlS8vgk",
      "material": ""
    },
    {
      "id": "2",
      "materia": "1 - PLATAFORMA - COMO USAR",
      "aula": "Aula 02 - TRILHAS - COMO UTILIZAR as TRILHAS da APRENDIZAGEM",
      "link": "https://youtu.be/GUis5krM11Y",
      "material": ""
    },
    {
      "id": "3",
      "materia": "1 - PLATAFORMA - COMO USAR",
      "aula": "Aula 03 - TRILHA - CRONOGRAMA - PARTE 01",
      "link": "https://youtu.be/QOoJdvJCl_k",
      "material": ""
    },
    {
      "id": "4",
      "materia": "1 - PLATAFORMA - COMO USAR",
      "aula": "Aula 04 - TRILHA - CRONOGRAMA - PARTE 02",
      "link": "https://youtu.be/9NXwPs1uUP4",
      "material": ""
    },
    {
      "id": "5",
      "materia": "2 - EDITAL - MAPA da PROVA e PLANO de ESTUDOS",
      "aula": "Aula 01 - EDITAL VERTICALIZADO - BANCO do NORDESTE - ANALISTA BANCÁRIO",
      "link": "",
      "material": "https://plataforma.fazquestao.com.br/minha-conta/download/55fe8d83-1bc8-4dc5-b6ab-98f6192978a1"
    },
    {
      "id": "6",
      "materia": "2 - EDITAL - MAPA da PROVA e PLANO de ESTUDOS",
      "aula": "Aula 02 - CRONOGRAMA MODELO - BANCO do NORDESTE - 2 MESES",
      "link": "",
      "material": "https://plataforma.fazquestao.com.br/minha-conta/download/0093c90d-3999-4387-9d21-1edd979e6ba8"
    },
    {
      "id": "7",
      "materia": "3 - TRILHAS - BANCO do NORDESTE - ANALISTA BANCÁRIO",
      "aula": "Aula 01 - TRILHA - PORTUGUÊS - BANCO do NORDESTE",
      "link": "",
      "material": "https://plataforma.fazquestao.com.br/minha-conta/download/629b185f-e34a-4164-b60e-5c64caffa7da"
    },
    {
      "id": "8",
      "materia": "3 - TRILHAS - BANCO do NORDESTE - ANALISTA BANCÁRIO",
      "aula": "Aula 02 - TRILHA - MATEMÁTICA BÁSICA - BANCO do NORDESTE",
      "link": "",
      "material": "https://plataforma.fazquestao.com.br/minha-conta/download/55658cb6-33f8-4d59-b143-1dd7a7e45a38"
    }
  ]
}